{
  "todos": [  {
    "name": "Andare dal medico",
    "start_date": "2021-08-01T13:00:00Z",
    "close_date": "",
    "status": "TODO",
    "description": "",
    "id": 1
  },
    {
      "name": "lavare la macchina",
      "status": "IN_PROGRESS",
      "start_date": "2021-08-01T13:00:00Z",
      "close_date": "",
      "description": "",
      "id": 2
    },
    {
      "name": "Portare fuori il cane",
      "status": "DONE",
      "start_date": "2021-08-01T13:00:00Z",
      "close_date": "2021-08-04T13:00:00Z",
      "description": "",
      "id": 3
    },
    {
      "name": "sdsdsd",
      "status": "TODO",
      "start_date": "2021-08-01T13:00:00Z",
      "close_date": "",
      "description": "",
      "id": 4
    },
    {
      "name": "Andare a lavorare",
      "status": "DONE",
      "start_date": "2021-08-01T13:00:00Z",
      "close_date": "2021-08-01T18:00:00Z",
      "description": "",
      "id": 5
    },
    {
      "name": "imparare SASS",
      "status": "TODO",
      "start_date": "2021-08-01T13:00:00Z",
      "close_date": "",
      "description": "",
      "id": 6
    },
    {
      "name": "comprare il pane",
      "status": "TODO",
      "start_date": "2021-08-01T13:00:00Z",
      "close_date": "",
      "description": "",
      "id": 7
    },
    {
      "name": "portare la spazzatura fuore",
      "status": "DONE",
      "start_date": "2021-08-01T3:00:00Z",
      "close_date": "2021-08-01T14:00:00Z",
      "description": "",
      "id": 8
    },
    {
      "name": "Comprare la carne",
      "status": "TODO",
      "start_date": "2021-08-01T13:00:00Z",
      "close_date": "",
      "description": "",
      "id": 9
    },
    {
      "name": "Andare in palesta",
      "status": "TODO",
      "start_date": "2021-08-01T13:00:00Z",
      "close_date": "",
      "description": "",
      "id": 10
    },
    {
      "name": "Andare da mamma",
      "status": "DONE",
      "start_date": "2021-08-01T13:00:00Z",
      "close_date": "2021-08-09T13:00:00Z",
      "description": "",
      "id": 11
    },
    {
      "name": "CORSO Nodejs",
      "status": "TODO",
      "start_date": "2021-08-01T13:00:00Z",
      "close_date": "",
      "description": "",
      "id": 12
    },
    {
      "name": "Corso Angular 12",
      "status": "TODO",
      "start_date": "2021-08-01T13:00:00Z",
      "close_date": "",
      "description": "",
      "id": 13
    },
    {
      "name": "Corso java micro servizi",
      "status": "TODO",
      "start_date": "2021-08-01T13:00:00Z",
      "close_date": "",
      "description": "",
      "id": 14
    }
  ]
}
